[
  {
    "star": 0,
    "probility_success": 5000,
    "probility_fail_keep": 5000,
    "probility_fail": 0,
    "probility_boom": 0
  },
  {
    "star": 1,
    "probility_success": 5000,
    "probility_fail_keep": 0,
    "probility_fail": 5000,
    "probility_boom": 0
  },
  {
    "star": 2,
    "probility_success": 4500,
    "probility_fail_keep": 0,
    "probility_fail": 5500,
    "probility_boom": 0
  },
  {
    "star": 3,
    "probility_success": 4000,
    "probility_fail_keep": 0,
    "probility_fail": 6000,
    "probility_boom": 0
  },
  {
    "star": 4,
    "probility_success": 4000,
    "probility_fail_keep": 0,
    "probility_fail": 6000,
    "probility_boom": 0
  },
  {
    "star": 5,
    "probility_success": 4000,
    "probility_fail_keep": 0,
    "probility_fail": 5820,
    "probility_boom": 180
  },
  {
    "star": 6,
    "probility_success": 4000,
    "probility_fail_keep": 0,
    "probility_fail": 5700,
    "probility_boom": 300
  },
  {
    "star": 7,
    "probility_success": 4000,
    "probility_fail_keep": 0,
    "probility_fail": 5600,
    "probility_boom": 420
  },
  {
    "star": 8,
    "probility_success": 4000,
    "probility_fail_keep": 0,
    "probility_fail": 6000,
    "probility_boom": 600
  },
  {
    "star": 9,
    "probility_success": 3700,
    "probility_fail_keep": 0,
    "probility_fail": 5355,
    "probility_boom": 945
  },
  {
    "star": 10,
    "probility_success": 3500,
    "probility_fail_keep": 0,
    "probility_fail": 5200,
    "probility_boom": 1300
  },
  {
    "star": 11,
    "probility_success": 3500,
    "probility_fail_keep": 0,
    "probility_fail": 4875,
    "probility_boom": 1625
  },
  {
    "star": 12,
    "probility_success": 300,
    "probility_fail_keep": 0,
    "probility_fail": 4850,
    "probility_boom": 4850
  },
  {
    "star": 13,
    "probility_success": 200,
    "probility_fail_keep": 0,
    "probility_fail": 4900,
    "probility_boom": 4900
  },
  {
    "star": 14,
    "probility_success": 100,
    "probility_fail_keep": 0,
    "probility_fail": 4950,
    "probility_boom": 4950
  }
]